%YAML 1.1
%TAG !u! tag:unity3d.com,2011:
--- !u!114 &11400000
MonoBehaviour:
  m_ObjectHideFlags: 0
  m_CorrespondingSourceObject: {fileID: 0}
  m_PrefabInstance: {fileID: 0}
  m_PrefabAsset: {fileID: 0}
  m_GameObject: {fileID: 0}
  m_Enabled: 1
  m_EditorHideFlags: 0
  m_Script: {fileID: 11500000, guid: 220fbb6928fd43eb8d6659378ef4bb52, type: 3}
  m_Name: RoomNodeTypeListSO
  m_EditorClassIdentifier: 
  <Types>k__BackingField:
  - {fileID: 11400000, guid: 63b22af5df3345e4cb17db617b9fa62f, type: 2}
  - {fileID: 11400000, guid: c2b733778ddd26c4fb370a4044eca95a, type: 2}
  - {fileID: 11400000, guid: 0fe2a3a116fbe1a4ba24c007751d2f6b, type: 2}
  - {fileID: 11400000, guid: bea0633801678394ead9f25b24d514a0, type: 2}
  - {fileID: 11400000, guid: 501f3b87034db9e4fbdb6c4ce9d9a0ba, type: 2}
  - {fileID: 11400000, guid: 31952fda7d2dbfc47abd499e5620c689, type: 2}
  - {fileID: 11400000, guid: 5041e6bb8a400574082bebc861d1d14e, type: 2}
  - {fileID: 11400000, guid: a214fadb180ee50409f15c71d6e808ee, type: 2}
  - {fileID: 11400000, guid: 02c901deebfebc743934394c1a79de68, type: 2}
  - {fileID: 11400000, guid: 5c61fe16430b92b48965ad9af3906355, type: 2}
