%YAML 1.1
%TAG !u! tag:unity3d.com,2011:
--- !u!114 &-8987261111123533746
MonoBehaviour:
  m_ObjectHideFlags: 0
  m_CorrespondingSourceObject: {fileID: 0}
  m_PrefabInstance: {fileID: 0}
  m_PrefabAsset: {fileID: 0}
  m_GameObject: {fileID: 0}
  m_Enabled: 1
  m_EditorHideFlags: 0
  m_Script: {fileID: 11500000, guid: 12cf4b81da254a93bfd06a00f3c11feb, type: 3}
  m_Name: RoomNode
  m_EditorClassIdentifier: 
  <RoomNodeType>k__BackingField: {fileID: 11400000, guid: c2b733778ddd26c4fb370a4044eca95a, type: 2}
--- !u!114 &-7895881335726299212
MonoBehaviour:
  m_ObjectHideFlags: 0
  m_CorrespondingSourceObject: {fileID: 0}
  m_PrefabInstance: {fileID: 0}
  m_PrefabAsset: {fileID: 0}
  m_GameObject: {fileID: 0}
  m_Enabled: 1
  m_EditorHideFlags: 0
  m_Script: {fileID: 11500000, guid: 12cf4b81da254a93bfd06a00f3c11feb, type: 3}
  m_Name: RoomNode
  m_EditorClassIdentifier: 
  <RoomNodeType>k__BackingField: {fileID: 11400000, guid: 31952fda7d2dbfc47abd499e5620c689, type: 2}
--- !u!114 &-7828458928429219859
MonoBehaviour:
  m_ObjectHideFlags: 0
  m_CorrespondingSourceObject: {fileID: 0}
  m_PrefabInstance: {fileID: 0}
  m_PrefabAsset: {fileID: 0}
  m_GameObject: {fileID: 0}
  m_Enabled: 1
  m_EditorHideFlags: 0
  m_Script: {fileID: 11500000, guid: 12cf4b81da254a93bfd06a00f3c11feb, type: 3}
  m_Name: RoomNode
  m_EditorClassIdentifier: 
  <RoomNodeType>k__BackingField: {fileID: 11400000, guid: c2b733778ddd26c4fb370a4044eca95a, type: 2}
--- !u!114 &-7669233957238100907
MonoBehaviour:
  m_ObjectHideFlags: 0
  m_CorrespondingSourceObject: {fileID: 0}
  m_PrefabInstance: {fileID: 0}
  m_PrefabAsset: {fileID: 0}
  m_GameObject: {fileID: 0}
  m_Enabled: 1
  m_EditorHideFlags: 0
  m_Script: {fileID: 11500000, guid: 12cf4b81da254a93bfd06a00f3c11feb, type: 3}
  m_Name: RoomNode
  m_EditorClassIdentifier: 
  <RoomNodeType>k__BackingField: {fileID: 11400000, guid: c2b733778ddd26c4fb370a4044eca95a, type: 2}
--- !u!114 &-7053938125287711179
MonoBehaviour:
  m_ObjectHideFlags: 0
  m_CorrespondingSourceObject: {fileID: 0}
  m_PrefabInstance: {fileID: 0}
  m_PrefabAsset: {fileID: 0}
  m_GameObject: {fileID: 0}
  m_Enabled: 1
  m_EditorHideFlags: 0
  m_Script: {fileID: 11500000, guid: 12cf4b81da254a93bfd06a00f3c11feb, type: 3}
  m_Name: RoomNode
  m_EditorClassIdentifier: 
  <RoomNodeType>k__BackingField: {fileID: 11400000, guid: 31952fda7d2dbfc47abd499e5620c689, type: 2}
--- !u!114 &-6715191796921100351
MonoBehaviour:
  m_ObjectHideFlags: 0
  m_CorrespondingSourceObject: {fileID: 0}
  m_PrefabInstance: {fileID: 0}
  m_PrefabAsset: {fileID: 0}
  m_GameObject: {fileID: 0}
  m_Enabled: 1
  m_EditorHideFlags: 0
  m_Script: {fileID: 11500000, guid: 12cf4b81da254a93bfd06a00f3c11feb, type: 3}
  m_Name: RoomNode
  m_EditorClassIdentifier: 
  <RoomNodeType>k__BackingField: {fileID: 11400000, guid: c2b733778ddd26c4fb370a4044eca95a, type: 2}
--- !u!114 &-6665060148960204290
MonoBehaviour:
  m_ObjectHideFlags: 0
  m_CorrespondingSourceObject: {fileID: 0}
  m_PrefabInstance: {fileID: 0}
  m_PrefabAsset: {fileID: 0}
  m_GameObject: {fileID: 0}
  m_Enabled: 1
  m_EditorHideFlags: 0
  m_Script: {fileID: 11500000, guid: 12cf4b81da254a93bfd06a00f3c11feb, type: 3}
  m_Name: RoomNode
  m_EditorClassIdentifier: 
  <RoomNodeType>k__BackingField: {fileID: 11400000, guid: 501f3b87034db9e4fbdb6c4ce9d9a0ba, type: 2}
--- !u!114 &-6584717761225194896
MonoBehaviour:
  m_ObjectHideFlags: 0
  m_CorrespondingSourceObject: {fileID: 0}
  m_PrefabInstance: {fileID: 0}
  m_PrefabAsset: {fileID: 0}
  m_GameObject: {fileID: 0}
  m_Enabled: 1
  m_EditorHideFlags: 0
  m_Script: {fileID: 11500000, guid: 12cf4b81da254a93bfd06a00f3c11feb, type: 3}
  m_Name: RoomNode
  m_EditorClassIdentifier: 
  <RoomNodeType>k__BackingField: {fileID: 11400000, guid: 501f3b87034db9e4fbdb6c4ce9d9a0ba, type: 2}
--- !u!114 &-5776675428252663588
MonoBehaviour:
  m_ObjectHideFlags: 0
  m_CorrespondingSourceObject: {fileID: 0}
  m_PrefabInstance: {fileID: 0}
  m_PrefabAsset: {fileID: 0}
  m_GameObject: {fileID: 0}
  m_Enabled: 1
  m_EditorHideFlags: 0
  m_Script: {fileID: 11500000, guid: 12cf4b81da254a93bfd06a00f3c11feb, type: 3}
  m_Name: RoomNode
  m_EditorClassIdentifier: 
  <RoomNodeType>k__BackingField: {fileID: 11400000, guid: c2b733778ddd26c4fb370a4044eca95a, type: 2}
--- !u!114 &-5455474842564554675
MonoBehaviour:
  m_ObjectHideFlags: 0
  m_CorrespondingSourceObject: {fileID: 0}
  m_PrefabInstance: {fileID: 0}
  m_PrefabAsset: {fileID: 0}
  m_GameObject: {fileID: 0}
  m_Enabled: 1
  m_EditorHideFlags: 0
  m_Script: {fileID: 11500000, guid: 12cf4b81da254a93bfd06a00f3c11feb, type: 3}
  m_Name: RoomNode
  m_EditorClassIdentifier: 
  <RoomNodeType>k__BackingField: {fileID: 11400000, guid: c2b733778ddd26c4fb370a4044eca95a, type: 2}
--- !u!114 &-4333932744037492789
MonoBehaviour:
  m_ObjectHideFlags: 0
  m_CorrespondingSourceObject: {fileID: 0}
  m_PrefabInstance: {fileID: 0}
  m_PrefabAsset: {fileID: 0}
  m_GameObject: {fileID: 0}
  m_Enabled: 1
  m_EditorHideFlags: 0
  m_Script: {fileID: 11500000, guid: 12cf4b81da254a93bfd06a00f3c11feb, type: 3}
  m_Name: RoomNode
  m_EditorClassIdentifier: 
  <RoomNodeType>k__BackingField: {fileID: 11400000, guid: c2b733778ddd26c4fb370a4044eca95a, type: 2}
--- !u!114 &-3488562460590859432
MonoBehaviour:
  m_ObjectHideFlags: 0
  m_CorrespondingSourceObject: {fileID: 0}
  m_PrefabInstance: {fileID: 0}
  m_PrefabAsset: {fileID: 0}
  m_GameObject: {fileID: 0}
  m_Enabled: 1
  m_EditorHideFlags: 0
  m_Script: {fileID: 11500000, guid: 12cf4b81da254a93bfd06a00f3c11feb, type: 3}
  m_Name: RoomNode
  m_EditorClassIdentifier: 
  <RoomNodeType>k__BackingField: {fileID: 11400000, guid: c2b733778ddd26c4fb370a4044eca95a, type: 2}
--- !u!114 &-2747940682519254398
MonoBehaviour:
  m_ObjectHideFlags: 0
  m_CorrespondingSourceObject: {fileID: 0}
  m_PrefabInstance: {fileID: 0}
  m_PrefabAsset: {fileID: 0}
  m_GameObject: {fileID: 0}
  m_Enabled: 1
  m_EditorHideFlags: 0
  m_Script: {fileID: 11500000, guid: 12cf4b81da254a93bfd06a00f3c11feb, type: 3}
  m_Name: RoomNode
  m_EditorClassIdentifier: 
  <RoomNodeType>k__BackingField: {fileID: 11400000, guid: c2b733778ddd26c4fb370a4044eca95a, type: 2}
--- !u!114 &-185596458686872692
MonoBehaviour:
  m_ObjectHideFlags: 0
  m_CorrespondingSourceObject: {fileID: 0}
  m_PrefabInstance: {fileID: 0}
  m_PrefabAsset: {fileID: 0}
  m_GameObject: {fileID: 0}
  m_Enabled: 1
  m_EditorHideFlags: 0
  m_Script: {fileID: 11500000, guid: 12cf4b81da254a93bfd06a00f3c11feb, type: 3}
  m_Name: RoomNode
  m_EditorClassIdentifier: 
  <RoomNodeType>k__BackingField: {fileID: 11400000, guid: 501f3b87034db9e4fbdb6c4ce9d9a0ba, type: 2}
--- !u!114 &11400000
MonoBehaviour:
  m_ObjectHideFlags: 0
  m_CorrespondingSourceObject: {fileID: 0}
  m_PrefabInstance: {fileID: 0}
  m_PrefabAsset: {fileID: 0}
  m_GameObject: {fileID: 0}
  m_Enabled: 1
  m_EditorHideFlags: 0
  m_Script: {fileID: 11500000, guid: 6cc87bf926897ce4e9599cb3ec954677, type: 3}
  m_Name: RoomNodeGraphSO_Level3_2
  m_EditorClassIdentifier: 
--- !u!114 &1332379937174689937
MonoBehaviour:
  m_ObjectHideFlags: 0
  m_CorrespondingSourceObject: {fileID: 0}
  m_PrefabInstance: {fileID: 0}
  m_PrefabAsset: {fileID: 0}
  m_GameObject: {fileID: 0}
  m_Enabled: 1
  m_EditorHideFlags: 0
  m_Script: {fileID: 11500000, guid: 12cf4b81da254a93bfd06a00f3c11feb, type: 3}
  m_Name: RoomNode
  m_EditorClassIdentifier: 
  <RoomNodeType>k__BackingField: {fileID: 11400000, guid: 501f3b87034db9e4fbdb6c4ce9d9a0ba, type: 2}
--- !u!114 &1682141179020423797
MonoBehaviour:
  m_ObjectHideFlags: 0
  m_CorrespondingSourceObject: {fileID: 0}
  m_PrefabInstance: {fileID: 0}
  m_PrefabAsset: {fileID: 0}
  m_GameObject: {fileID: 0}
  m_Enabled: 1
  m_EditorHideFlags: 0
  m_Script: {fileID: 11500000, guid: 12cf4b81da254a93bfd06a00f3c11feb, type: 3}
  m_Name: RoomNode
  m_EditorClassIdentifier: 
  <RoomNodeType>k__BackingField: {fileID: 11400000, guid: c2b733778ddd26c4fb370a4044eca95a, type: 2}
--- !u!114 &2620977284670196985
MonoBehaviour:
  m_ObjectHideFlags: 0
  m_CorrespondingSourceObject: {fileID: 0}
  m_PrefabInstance: {fileID: 0}
  m_PrefabAsset: {fileID: 0}
  m_GameObject: {fileID: 0}
  m_Enabled: 1
  m_EditorHideFlags: 0
  m_Script: {fileID: 11500000, guid: 12cf4b81da254a93bfd06a00f3c11feb, type: 3}
  m_Name: RoomNode
  m_EditorClassIdentifier: 
  <RoomNodeType>k__BackingField: {fileID: 11400000, guid: 31952fda7d2dbfc47abd499e5620c689, type: 2}
--- !u!114 &5293353404263943363
MonoBehaviour:
  m_ObjectHideFlags: 0
  m_CorrespondingSourceObject: {fileID: 0}
  m_PrefabInstance: {fileID: 0}
  m_PrefabAsset: {fileID: 0}
  m_GameObject: {fileID: 0}
  m_Enabled: 1
  m_EditorHideFlags: 0
  m_Script: {fileID: 11500000, guid: 12cf4b81da254a93bfd06a00f3c11feb, type: 3}
  m_Name: RoomNode
  m_EditorClassIdentifier: 
  <RoomNodeType>k__BackingField: {fileID: 11400000, guid: 02c901deebfebc743934394c1a79de68, type: 2}
--- !u!114 &6945783955200317632
MonoBehaviour:
  m_ObjectHideFlags: 0
  m_CorrespondingSourceObject: {fileID: 0}
  m_PrefabInstance: {fileID: 0}
  m_PrefabAsset: {fileID: 0}
  m_GameObject: {fileID: 0}
  m_Enabled: 1
  m_EditorHideFlags: 0
  m_Script: {fileID: 11500000, guid: 12cf4b81da254a93bfd06a00f3c11feb, type: 3}
  m_Name: RoomNode
  m_EditorClassIdentifier: 
  <RoomNodeType>k__BackingField: {fileID: 11400000, guid: c2b733778ddd26c4fb370a4044eca95a, type: 2}
--- !u!114 &7031801989960266074
MonoBehaviour:
  m_ObjectHideFlags: 0
  m_CorrespondingSourceObject: {fileID: 0}
  m_PrefabInstance: {fileID: 0}
  m_PrefabAsset: {fileID: 0}
  m_GameObject: {fileID: 0}
  m_Enabled: 1
  m_EditorHideFlags: 0
  m_Script: {fileID: 11500000, guid: 12cf4b81da254a93bfd06a00f3c11feb, type: 3}
  m_Name: RoomNode
  m_EditorClassIdentifier: 
  <RoomNodeType>k__BackingField: {fileID: 11400000, guid: 5041e6bb8a400574082bebc861d1d14e, type: 2}
--- !u!114 &7712136659740214170
MonoBehaviour:
  m_ObjectHideFlags: 0
  m_CorrespondingSourceObject: {fileID: 0}
  m_PrefabInstance: {fileID: 0}
  m_PrefabAsset: {fileID: 0}
  m_GameObject: {fileID: 0}
  m_Enabled: 1
  m_EditorHideFlags: 0
  m_Script: {fileID: 11500000, guid: 12cf4b81da254a93bfd06a00f3c11feb, type: 3}
  m_Name: RoomNode
  m_EditorClassIdentifier: 
  <RoomNodeType>k__BackingField: {fileID: 11400000, guid: 31952fda7d2dbfc47abd499e5620c689, type: 2}
--- !u!114 &7867449710219624082
MonoBehaviour:
  m_ObjectHideFlags: 0
  m_CorrespondingSourceObject: {fileID: 0}
  m_PrefabInstance: {fileID: 0}
  m_PrefabAsset: {fileID: 0}
  m_GameObject: {fileID: 0}
  m_Enabled: 1
  m_EditorHideFlags: 0
  m_Script: {fileID: 11500000, guid: 12cf4b81da254a93bfd06a00f3c11feb, type: 3}
  m_Name: RoomNode
  m_EditorClassIdentifier: 
  <RoomNodeType>k__BackingField: {fileID: 11400000, guid: a214fadb180ee50409f15c71d6e808ee, type: 2}
--- !u!114 &8881827188390058788
MonoBehaviour:
  m_ObjectHideFlags: 0
  m_CorrespondingSourceObject: {fileID: 0}
  m_PrefabInstance: {fileID: 0}
  m_PrefabAsset: {fileID: 0}
  m_GameObject: {fileID: 0}
  m_Enabled: 1
  m_EditorHideFlags: 0
  m_Script: {fileID: 11500000, guid: 12cf4b81da254a93bfd06a00f3c11feb, type: 3}
  m_Name: RoomNode
  m_EditorClassIdentifier: 
  <RoomNodeType>k__BackingField: {fileID: 11400000, guid: 5041e6bb8a400574082bebc861d1d14e, type: 2}
