%YAML 1.1
%TAG !u! tag:unity3d.com,2011:
--- !u!114 &11400000
MonoBehaviour:
  m_ObjectHideFlags: 0
  m_CorrespondingSourceObject: {fileID: 0}
  m_PrefabInstance: {fileID: 0}
  m_PrefabAsset: {fileID: 0}
  m_GameObject: {fileID: 0}
  m_Enabled: 1
  m_EditorHideFlags: 0
  m_Script: {fileID: 11500000, guid: e2c33931270540af9cb458df32c5a9c2, type: 3}
  m_Name: None
  m_EditorClassIdentifier: 
  <RoomNodeTypeName>k__BackingField: None
  <DisplayInNodeGraphEditor>k__BackingField: 1
  <IsCorridor>k__BackingField: 0
  <IsCorridorNS>k__BackingField: 0
  <IsCorridorEW>k__BackingField: 0
  <InEntrance>k__BackingField: 0
  <IsBossRoom>k__BackingField: 0
  <IsNone>k__BackingField: 1
